{
    "version": "0.9.3",
    "description": "single binary cli for easy and reliable handling of gitlab releases - provided by Raymond the Raccoon",
    "homepage": "https://isynth.io",
    "license": "Proprietary",
    "architecture": {
        "64bit": {
            "url": "https://gitlab.com/api/v4/projects/58009864/packages/generic/raccoon/0.9.3/raccoon-0.9.3-windows-amd64.exe#/raccoon.exe",
            "hash": "3a91caeee83709820743946fc7ecb359196473ff18ea3b0e0517e08e96266ba7"
        },
        "arm64": {
            "url": "https://gitlab.com/api/v4/projects/58009864/packages/generic/raccoon/0.9.3/raccoon-0.9.3-windows-arm64.exe#/raccoon.exe",
            "hash": "ffae43f6aea35c017518e0809897d92f1a5eb27dae8de9f1510a40d3f82410a9"
        }

    },
    "bin": [
        "raccoon.exe"
    ]
}